INDEX VERSION 1.130+C:\Users\Admin\Desktop\Duplicates\UrbanNest\Backend\UsersWorkSpace\.metadata\.plugins\org.eclipse.jdt.core
176081445.index
2758576337.index
4175984132.index
1897552840.index
2135095225.index
3194337105.index
2194716159.index
3537285648.index
4025934178.index
1070925910.index
3522488191.index
3566089501.index
230428119.index
2653330038.index
3355708150.index
2672916883.index
1227306570.index
847181078.index
2363566023.index
789793410.index
1737575566.index
2224237912.index
144601765.index
1318221229.index
2330590175.index
2068337895.index
1692654745.index
2496433315.index
3219826390.index
86227822.index
3312165055.index
1094938870.index
1506378269.index
3258631911.index
1799476699.index
2578430401.index
970717607.index
2543148744.index
3530034390.index
1489867263.index
966277549.index
1939103288.index
2280824553.index
46606747.index
3512346830.index
1552878334.index
1631215790.index
1761928323.index
1873896275.index
2005727387.index
3656258783.index
3398067684.index
1232460505.index
3818675454.index
1838316201.index
585472926.index
2561441264.index
4278764599.index
116554015.index
3107372185.index
2891782073.index
1979752633.index
2738065678.index
1273297841.index
1736029357.index
682233710.index
158472536.index
2071899228.index
2085310926.index
401767567.index
713851350.index
1815616823.index
4089765016.index
2630066224.index
4116077892.index
2782998763.index
2587099047.index
3796219515.index
2006079928.index
4203771247.index
1042933137.index
1032093370.index
1182501116.index
3345350613.index
10832866.index
2256529200.index
3852244655.index
3393280647.index
3152806741.index
3578020678.index
1420267617.index
3921045008.index
3858155954.index
4229891941.index
1038751644.index
2331865692.index
895783441.index
3748878864.index
4241006554.index
180045199.index
743109110.index
516855126.index
255341731.index
3123164085.index
1614076663.index
1099359906.index
1132291763.index
2335527058.index
38587605.index
2769564526.index
2071462652.index
3926854650.index
1088444589.index
3955280754.index
3198953083.index
3520424145.index
